<svg width="72" height="22" viewBox="0 0 72 22" fill="none" xmlns="http://www.w3.org/2000/svg">
<g clip-path="url(#clip0_126_12270)">
<path d="M7.6297 13.2438C7.6297 13.717 7.52961 14.1569 7.32942 14.5633C7.12924 14.9642 6.84561 15.3093 6.48968 15.5877C6.1282 15.8717 5.70003 16.0888 5.2051 16.2447C4.71017 16.4006 4.16519 16.4785 3.57573 16.4785C2.86948 16.4785 2.23553 16.3839 1.67943 16.189C1.12333 15.9997 0.561661 15.6768 0 15.2314L0.928694 13.7226C1.37357 14.0956 1.77396 14.3684 2.13543 14.541C2.49133 14.7136 2.85836 14.7971 3.23651 14.7971C3.69807 14.7971 4.0651 14.6802 4.34871 14.4408C4.63232 14.2014 4.76579 13.884 4.76579 13.4776C4.76579 13.305 4.73798 13.1436 4.68793 12.9932C4.63788 12.8429 4.54334 12.687 4.40988 12.5255C4.27642 12.3697 4.08735 12.1915 3.84822 12.0078C3.61466 11.824 3.3088 11.5902 2.93065 11.3174C2.64704 11.1169 2.36342 10.9054 2.09094 10.6938C1.81845 10.4767 1.57377 10.2484 1.34577 10.0034C1.12333 9.75844 0.945372 9.48567 0.806347 9.17943C0.672881 8.8788 0.600592 8.52801 0.600592 8.14387C0.600592 7.69847 0.69513 7.28642 0.878642 6.91898C1.06215 6.55155 1.31796 6.23974 1.6405 5.97806C1.96303 5.71639 2.34675 5.51595 2.80275 5.3712C3.25319 5.22644 3.74256 5.15407 4.27642 5.15407C4.83808 5.15407 5.37749 5.22645 5.90022 5.37677C6.42293 5.52709 6.90675 5.74423 7.35722 6.03374L6.51748 7.39224C5.94472 6.99134 5.33856 6.78537 4.70461 6.78537C4.3209 6.78537 3.99837 6.88558 3.74812 7.086C3.49787 7.28642 3.36997 7.537 3.36997 7.84318C3.36997 8.13271 3.48119 8.39439 3.70363 8.62267C3.92607 8.85649 4.30978 9.17388 4.85476 9.59697C5.4053 9.99787 5.8613 10.3542 6.2172 10.6548C6.57868 10.9555 6.86231 11.245 7.07359 11.5122C7.28492 11.7795 7.42397 12.0467 7.50736 12.3251C7.59075 12.609 7.6297 12.9097 7.6297 13.2438ZM17.1668 10.6994C17.1668 11.1169 17.1223 11.5679 17.0334 12.0523C16.9499 12.5367 16.7998 12.9821 16.5885 13.3941C16.3772 13.8061 16.1047 14.1457 15.7655 14.4074C15.4262 14.6746 14.9925 14.8082 14.4753 14.8082C13.6078 14.8082 12.9238 14.463 12.4233 13.7671C11.9228 13.0768 11.6726 12.1247 11.6726 10.9165C11.6726 9.67493 11.9228 8.69502 12.4344 7.9657C12.9405 7.23631 13.63 6.87443 14.4976 6.87443C15.3206 6.87443 15.9712 7.21961 16.4495 7.89889C16.9277 8.58372 17.1668 9.51907 17.1668 10.6994ZM20.1809 10.5936C20.1809 9.7863 20.0641 9.05136 19.8361 8.39439C19.6025 7.73188 19.28 7.16396 18.8518 6.68516C18.4236 6.20634 17.9231 5.83888 17.3392 5.57163C16.7553 5.30439 16.1102 5.17076 15.404 5.17076C14.6254 5.17076 13.9414 5.32109 13.352 5.61061C12.7625 5.90569 12.212 6.36777 11.7114 7.00249L11.6948 5.42687H8.91986V21.623H11.6893V14.7804C11.9617 15.0978 12.2231 15.365 12.4789 15.5822C12.7291 15.7993 12.985 15.9775 13.2463 16.1111C13.5077 16.2447 13.7802 16.3449 14.0693 16.4006C14.3585 16.4563 14.6699 16.4841 14.998 16.4841C15.7321 16.4841 16.4217 16.3338 17.0556 16.0443C17.6896 15.7492 18.2401 15.3372 18.7016 14.8027C19.1632 14.2682 19.5247 13.6446 19.7861 12.9375C20.053 12.2249 20.1809 11.4399 20.1809 10.5936ZM21.4155 16.2224H24.2626V0.377075H21.4155V16.2224ZM36.4079 16.228V5.41574H33.5607V11.2338C33.5607 11.7517 33.5384 12.1525 33.4939 12.4365C33.4494 12.7204 33.3771 12.9709 33.277 13.2048C32.8767 14.0956 32.137 14.5466 31.0638 14.5466C30.2241 14.5466 29.6402 14.2459 29.3065 13.6391C29.173 13.4108 29.084 13.1491 29.034 12.8596C28.984 12.5701 28.9562 12.1525 28.9562 11.6013V5.41574H26.1089V11.5568C26.1089 11.9743 26.1145 12.3307 26.1201 12.6147C26.1256 12.8986 26.1479 13.1603 26.1757 13.3829C26.2035 13.6057 26.2368 13.8061 26.2758 13.9787C26.3091 14.1513 26.3647 14.3183 26.437 14.4742C26.6984 15.1367 27.1154 15.6378 27.6993 15.9775C28.2833 16.317 29.0007 16.4841 29.8459 16.4841C30.6078 16.4841 31.2806 16.3505 31.859 16.0832C32.4374 15.816 32.999 15.3817 33.544 14.7748L33.5495 16.2224L36.4079 16.228ZM48.6755 16.2224V10.0925C48.6755 9.67493 48.6699 9.31859 48.6643 9.02351C48.6588 8.72843 48.6421 8.47235 48.6087 8.25523C48.5809 8.03805 48.542 7.84879 48.5031 7.68732C48.4586 7.5203 48.4085 7.35883 48.353 7.20291C48.0916 6.55709 47.6745 6.05601 47.0906 5.70525C46.5067 5.35449 45.7893 5.17633 44.9385 5.17633C44.1766 5.17633 43.5038 5.30995 42.9254 5.5772C42.347 5.84444 41.7854 6.28426 41.2404 6.88558L41.2349 5.43801H38.3709V16.228H41.2404V10.4043C41.2404 9.90321 41.2571 9.50791 41.296 9.22953C41.3294 8.95115 41.4017 8.68948 41.5018 8.43895C41.6853 8.00465 41.9745 7.68177 42.3582 7.45904C42.7419 7.23631 43.1979 7.12501 43.7317 7.12501C44.5715 7.12501 45.1554 7.42564 45.489 8.0325C45.617 8.26078 45.7059 8.52246 45.7559 8.80639C45.806 9.09037 45.8338 9.51346 45.8338 10.0591V16.2168L48.6755 16.2224ZM60.4534 15.5098L56.1161 10.1148L59.7807 6.18407L57.6231 5.25428L53.8083 9.68048H53.508V0.377075H50.6385V16.2224H53.508V10.4822L57.8011 16.4396L60.4534 15.5098ZM71.5426 11.6347V9.8698L62.9174 5.53822V7.48129L69.6016 10.7383L62.9174 14.0399V15.9385L71.5426 11.6347ZM63.7513 2.73773C63.2231 2.73773 62.7946 3.172 62.7946 3.70649C62.7946 4.25212 63.2231 4.68082 63.7513 4.68082C64.2854 4.68082 64.7079 4.25212 64.7079 3.70649C64.7079 3.16644 64.2854 2.73773 63.7513 2.73773ZM63.7572 2.88805C64.185 2.88805 64.5297 3.25552 64.5297 3.71206C64.5297 4.1686 64.185 4.53606 63.7572 4.53049C63.3234 4.53049 62.9782 4.1686 62.9782 3.70649C62.9782 3.25552 63.3234 2.88805 63.7572 2.88805ZM63.5736 3.80671H63.6899C63.8292 3.80671 63.8959 3.85682 63.9236 3.99601C63.946 4.14076 63.9738 4.23541 63.9962 4.26882H64.1797C64.1626 4.23541 64.1349 4.1686 64.1131 4.00157C64.0906 3.84011 64.0292 3.7566 63.9295 3.7399V3.72876C64.0464 3.69535 64.1408 3.60628 64.1408 3.46709C64.1408 3.36687 64.1071 3.28892 64.0405 3.24438C63.9738 3.19428 63.8681 3.16087 63.707 3.16087C63.579 3.16087 63.4898 3.172 63.4013 3.1887V4.26882H63.5736V3.80671ZM63.5736 3.30562C63.6014 3.30006 63.6403 3.29449 63.6958 3.29449C63.8906 3.29449 63.9572 3.38914 63.9572 3.48379C63.9572 3.61741 63.8345 3.66752 63.6958 3.66752H63.5736V3.30562Z" fill="#0C1724"/>
</g>
<defs>
<clipPath id="clip0_126_12270">
<rect width="72" height="21.2459" fill="white" transform="translate(0 0.377075)"/>
</clipPath>
</defs>
</svg>
